E - 通识+专业课程资料/第3学期-现代数字电子技术基础实验/数电实验-大作业-多人抢答器/quickans/simulation/qsim/quickans.msim.vcd
$comment
	File created using the following command:
		vcd file quickans.msim.vcd -direction
$end
$date
	Mon Dec 23 18:37:20 2024
$end
$version
	ModelSim Version 10.5b
$end
$timescale
	1ps
$end

$scope module suocun_vlg_vec_tst $end
$var reg 1 ! A $end
$var reg 1 " B $end
$var reg 1 # C $end
$var reg 1 $ CLEAR $end
$var reg 1 % CLK $end
$var reg 1 & D $end
$var wire 1 ' AO $end
$var wire 1 ( BO $end
$var wire 1 ) CO $end
$var wire 1 * DO $end

$scope module i1 $end
$var wire 1 + gnd $end
$var wire 1 , vcc $end
$var wire 1 - unknown $end
$var tri1 1 . devclrn $end
$var tri1 1 / devpor $end
$var tri1 1 0 devoe $end
$var wire 1 1 AO~output_o $end
$var wire 1 2 BO~output_o $end
$var wire 1 3 CO~output_o $end
$var wire 1 4 DO~output_o $end
$var wire 1 5 C~input_o $end
$var wire 1 6 inst11~0_combout $end
$var wire 1 7 CLEAR~input_o $end
$var wire 1 8 inst11~q $end
$var wire 1 9 D~input_o $end
$var wire 1 : inst12~0_combout $end
$var wire 1 ; inst12~q $end
$var wire 1 < B~input_o $end
$var wire 1 = inst9~0_combout $end
$var wire 1 > inst9~q $end
$var wire 1 ? inst5~0_combout $end
$var wire 1 @ CLK~input_o $end
$var wire 1 A inst5~combout $end
$var wire 1 B inst5~clkctrl_outclk $end
$var wire 1 C A~input_o $end
$var wire 1 D inst8~0_combout $end
$var wire 1 E inst8~q $end
$upscope $end
$upscope $end
$enddefinitions $end
#0
$dumpvars
0!
0"
0#
0$
0%
0&
0'
0(
0)
0*
0+
1,
x-
1.
1/
10
01
02
03
04
05
06
07
08
09
0:
0;
0<
0=
0>
1?
0@
0A
0B
0C
0D
0E
$end
#5000
1%
1@
1A
1B
#10000
0%
0@
0A
0B
#15000
1%
1@
1A
1B
#20000
0%
0@
0A
0B
#25000
1%
1@
1A
1B
#30000
0%
0@
0A
0B
#35000
1%
1@
1A
1B
#40000
0%
0@
0A
0B
#45000
1%
1@
1A
1B
#50000
0%
0@
0A
0B
#55000
1%
1@
1A
1B
#60000
0%
0@
0A
0B
#65000
1%
1@
1A
1B
#70000
0%
0@
0A
0B
#75000
1%
1@
1A
1B
#80000
0%
0@
0A
0B
#85000
1%
1@
1A
1B
#90000
0%
0@
0A
0B
#95000
1%
1@
1A
1B
#100000
1!
0%
1C
0@
0A
0B
1D
#105000
1%
1@
1A
1B
1E
11
0?
1'
0A
0B
#110000
0%
0@
#115000
1%
1@
#120000
0%
0@
#125000
1%
1@
#130000
0!
0%
0C
0@
#135000
1%
1@
#140000
0%
0@
#145000
1%
1@
#150000
1"
0%
1<
0@
1=
#155000
1%
1@
#160000
0%
0@
#165000
1%
1@
#170000
0"
0%
0<
0@
0=
#175000
1%
1@
#180000
0%
0@
#185000
1%
1@
#190000
1#
0%
15
0@
16
#195000
1%
1@
#200000
0%
0@
#205000
1%
1@
#210000
0#
0%
05
0@
06
#215000
1%
1@
#220000
0%
0@
#225000
1%
1@
#230000
1&
0%
19
0@
1:
#235000
1%
1@
#240000
0%
0@
#245000
1%
1@
#250000
0&
0%
09
0@
0:
#255000
1%
1@
#260000
0%
0@
#265000
1%
1@
#270000
0%
0@
#275000
1%
1@
#280000
0%
0@
#285000
1%
1@
#290000
1$
0%
17
0@
0E
01
1?
0'
0D
#295000
1%
1@
1A
1B
#300000
0%
0@
0A
0B
#305000
1%
1@
1A
1B
#310000
0%
0@
0A
0B
#315000
1%
1@
1A
1B
#320000
0$
0%
07
0@
0A
0B
#325000
1%
1@
1A
1B
#330000
0%
0@
0A
0B
#335000
1%
1@
1A
1B
#340000
0%
0@
0A
0B
#345000
1%
1@
1A
1B
#350000
1"
0%
1<
0@
0A
0B
1=
#355000
1%
1@
1A
1B
1>
12
0?
1(
0A
0B
#360000
0%
0@
#365000
1%
1@
#370000
1!
0"
0%
1C
0<
0@
1D
#375000
1%
1@
#380000
0%
0@
#385000
1%
1@
#390000
0!
0%
0C
0@
0D
#395000
1%
1@
#400000
0%
0@
#405000
1%
1@
#410000
1&
0%
19
0@
1:
#415000
1%
1@
#420000
0%
0@
#425000
1%
1@
#430000
0&
0%
09
0@
0:
#435000
1%
1@
#440000
0%
0@
#445000
1%
1@
#450000
0%
0@
#455000
1%
1@
#460000
0%
0@
#465000
1%
1@
#470000
1$
0%
17
0@
0>
02
1?
0(
0=
#475000
1%
1@
1A
1B
#480000
0%
0@
0A
0B
#485000
1%
1@
1A
1B
#490000
0$
0%
07
0@
0A
0B
#495000
1%
1@
1A
1B
#500000
0%
0@
0A
0B
#505000
1%
1@
1A
1B
#510000
0%
0@
0A
0B
#515000
1%
1@
1A
1B
#520000
0%
0@
0A
0B
#525000
1%
1@
1A
1B
#530000
0%
0@
0A
0B
#535000
1%
1@
1A
1B
#540000
0%
0@
0A
0B
#545000
1%
1@
1A
1B
#550000
0%
0@
0A
0B
#555000
1%
1@
1A
1B
#560000
0%
0@
0A
0B
#565000
1%
1@
1A
1B
#570000
0%
0@
0A
0B
#575000
1%
1@
1A
1B
#580000
0%
0@
0A
0B
#585000
1%
1@
1A
1B
#590000
0%
0@
0A
0B
#595000
1%
1@
1A
1B
#600000
0%
0@
0A
0B
#605000
1%
1@
1A
1B
#610000
0%
0@
0A
0B
#615000
1%
1@
1A
1B
#620000
0%
0@
0A
0B
#625000
1%
1@
1A
1B
#630000
0%
0@
0A
0B
#635000
1%
1@
1A
1B
#640000
0%
0@
0A
0B
#645000
1%
1@
1A
1B
#650000
0%
0@
0A
0B
#655000
1%
1@
1A
1B
#660000
0%
0@
0A
0B
#665000
1%
1@
1A
1B
#670000
0%
0@
0A
0B
#675000
1%
1@
1A
1B
#680000
0%
0@
0A
0B
#685000
1%
1@
1A
1B
#690000
0%
0@
0A
0B
#695000
1%
1@
1A
1B
#700000
0%
0@
0A
0B
#705000
1%
1@
1A
1B
#710000
0%
0@
0A
0B
#715000
1%
1@
1A
1B
#720000
0%
0@
0A
0B
#725000
1%
1@
1A
1B
#730000
0%
0@
0A
0B
#735000
1%
1@
1A
1B
#740000
0%
0@
0A
0B
#745000
1%
1@
1A
1B
#750000
0%
0@
0A
0B
#755000
1%
1@
1A
1B
#760000
0%
0@
0A
0B
#765000
1%
1@
1A
1B
#770000
0%
0@
0A
0B
#775000
1%
1@
1A
1B
#780000
0%
0@
0A
0B
#785000
1%
1@
1A
1B
#790000
0%
0@
0A
0B
#795000
1%
1@
1A
1B
#800000
0%
0@
0A
0B
#805000
1%
1@
1A
1B
#810000
0%
0@
0A
0B
#815000
1%
1@
1A
1B
#820000
0%
0@
0A
0B
#825000
1%
1@
1A
1B
#830000
0%
0@
0A
0B
#835000
1%
1@
1A
1B
#840000
0%
0@
0A
0B
#845000
1%
1@
1A
1B
#850000
0%
0@
0A
0B
#855000
1%
1@
1A
1B
#860000
0%
0@
0A
0B
#865000
1%
1@
1A
1B
#870000
0%
0@
0A
0B
#875000
1%
1@
1A
1B
#880000
0%
0@
0A
0B
#885000
1%
1@
1A
1B
#890000
0%
0@
0A
0B
#895000
1%
1@
1A
1B
#900000
0%
0@
0A
0B
#905000
1%
1@
1A
1B
#910000
0%
0@
0A
0B
#915000
1%
1@
1A
1B
#920000
0%
0@
0A
0B
#925000
1%
1@
1A
1B
#930000
0%
0@
0A
0B
#935000
1%
1@
1A
1B
#940000
0%
0@
0A
0B
#945000
1%
1@
1A
1B
#950000
0%
0@
0A
0B
#955000
1%
1@
1A
1B
#960000
0%
0@
0A
0B
#965000
1%
1@
1A
1B
#970000
0%
0@
0A
0B
#975000
1%
1@
1A
1B
#980000
0%
0@
0A
0B
#985000
1%
1@
1A
1B
#990000
0%
0@
0A
0B
#995000
1%
1@
1A
1B
